session,patronyme,departement,nombre_de_presents,nombre_total_d_admis
2006,DU REVERMONT,2,102,86
2006,EMILE CIZAIN,2,149,118
2006,HENRI DUNANT,2,82,69
2006,INTERNATIONAL,2,194,176
2006,JEAN COMPAGNON,2,141,100
2006,JEAN MOULIN,2,152,119
2006,LA CROIX BLANCHE,2,104,72
2006,LE MOLARD,2,30,21
2006,LE TURET,2,115,91
2006,LEON COMAS,2,144,105
2006,LEON-MARIE FOURNET,2,101,78
2006,LOUIS AMIOT,2,72,45
2006,LOUIS ARMSTRONG,2,121,91
2006,EUGENE DUBOIS,2,155,120
2006,GABRIEL VOISIN,2,23,21